{
    "bulma": {
        "branch": "0.9.2",
        "description": "Modern CSS framework based on Flexbox",
        "homepage": "https://bulma.io",
        "owner": "jgthms",
        "repo": "bulma",
        "rev": "c5edaea84f289b1e92f406b6d38de40970262e46",
        "sha256": "1wwknr8cgzrgazqag9vx08k4rc0s6ya50wr24wyb5y0qab5ilq22",
        "type": "tarball",
        "url": "https://github.com/jgthms/bulma/archive/c5edaea84f289b1e92f406b6d38de40970262e46.tar.gz",
        "url_template": "https://github.com/<owner>/<repo>/archive/<rev>.tar.gz"
    },
    "bulma-carousel": {
        "branch": "master",
        "description": "Display a carousel",
        "homepage": null,
        "owner": "Wikiki",
        "repo": "bulma-carousel",
        "rev": "3de42c029917536d2f4867fd469f8187c56bcd41",
        "sha256": "09dv60xjzryqh1y5s45cd4zfw338bc0bjvkazj2fkgqjilcyagnw",
        "type": "tarball",
        "url": "https://github.com/Wikiki/bulma-carousel/archive/3de42c029917536d2f4867fd469f8187c56bcd41.tar.gz",
        "url_template": "https://github.com/<owner>/<repo>/archive/<rev>.tar.gz"
    },
    "bulma-pricingtable": {
        "branch": "master",
        "description": "Display a pricing table with Bulma",
        "homepage": null,
        "owner": "Wikiki",
        "repo": "bulma-pricingtable",
        "rev": "aea1e79224b2c2116f9bbcd8ff4899e5d0e26d09",
        "sha256": "1l3xbmp7w4722gb4pajdbh3mjks3xib32vsxas76kxgd2zl2jpvd",
        "type": "tarball",
        "url": "https://github.com/Wikiki/bulma-pricingtable/archive/aea1e79224b2c2116f9bbcd8ff4899e5d0e26d09.tar.gz",
        "url_template": "https://github.com/<owner>/<repo>/archive/<rev>.tar.gz"
    },
    "bulma-timeline": {
        "branch": "master",
        "description": "Bulma's extension to display a timeline",
        "homepage": null,
        "owner": "Wikiki",
        "repo": "bulma-timeline",
        "rev": "507ec83580eb8bdd10e712a76ed3a368ab8c42f7",
        "sha256": "01f34ggn75nzvnknsxlqgcp26j5mqmw8wspngp6zzihv4azifg9h",
        "type": "tarball",
        "url": "https://github.com/Wikiki/bulma-timeline/archive/507ec83580eb8bdd10e712a76ed3a368ab8c42f7.tar.gz",
        "url_template": "https://github.com/<owner>/<repo>/archive/<rev>.tar.gz"
    },
    "cs-syd-logo": {
        "branch": "master",
        "ref": "master",
        "repo": "https://gitlab.com/Norfair/cs-syd-logo",
        "rev": "644c423d4b1c6fb2f5d44b6b4c77259d6b82064b",
        "sha256": "1ksaa3cklwky52axc6wwa1jkj69zd70bsgiz5d54andz0kw71kaa",
        "type": "git",
        "url_template": "https://gitlab.com/Norfair/cs-syd-logo/-/archive/<rev>/cs-syd-logo-<rev>.tar.gz"
    },
    "cv-generator": {
        "branch": "master",
        "ref": "master",
        "repo": "https://gitlab.com/Norfair/cv-generator",
        "rev": "b814fa144bd37d2a2db1fdeaea6106f7280fe88a",
        "sha256": "1ksaa3cklwky52axc6wwa1jkj69zd70bsgiz5d54bndz0kw71kaa",
        "type": "git",
        "url_template": "https://gitlab.com/Norfair/cv-generator/-/archive/<rev>/cv-generator-<rev>.tar.gz"
    },
    "linkcheck": {
        "branch": "master",
        "description": "A fast link checker for CI",
        "homepage": null,
        "owner": "NorfairKing",
        "repo": "linkcheck",
        "rev": "04168bc98011cf5c9589bc3e94086d7e72f86981",
        "sha256": "19sdi3zzb8xv61lzrn6vad4lxm12nxrym5xybyhwhr2vkjjm5fg2",
        "type": "tarball",
        "url": "https://github.com/NorfairKing/linkcheck/archive/04168bc98011cf5c9589bc3e94086d7e72f86981.tar.gz",
        "url_template": "https://github.com/<owner>/<repo>/archive/<rev>.tar.gz"
    },
    "niv": {
        "branch": "master",
        "description": "Easy dependency management for Nix projects",
        "homepage": "https://github.com/nmattia/niv",
        "owner": "nmattia",
        "repo": "niv",
        "rev": "65a61b147f307d24bfd0a5cd56ce7d7b7cc61d2e",
        "sha256": "17mirpsx5wyw262fpsd6n6m47jcgw8k2bwcp1iwdnrlzy4dhcgqh",
        "type": "tarball",
        "url": "https://github.com/nmattia/niv/archive/65a61b147f307d24bfd0a5cd56ce7d7b7cc61d2e.tar.gz",
        "url_template": "https://github.com/<owner>/<repo>/archive/<rev>.tar.gz"
    },
    "nixpkgs": {
        "branch": "nixos-20.09",
        "description": "Nix Packages collection",
        "homepage": "",
        "owner": "NixOS",
        "repo": "nixpkgs",
        "rev": "a13824fe5e38187fbc75cd598b5c06bdcc13501f",
        "sha256": "1jy36v8af78qlml78v21djla9ywdq1rcvb25axk020xmgsxxz916",
        "type": "tarball",
        "url": "https://github.com/NixOS/nixpkgs/archive/a13824fe5e38187fbc75cd598b5c06bdcc13501f.tar.gz",
        "url_template": "https://github.com/<owner>/<repo>/archive/<rev>.tar.gz"
    },
    "safe-coloured-text": {
        "branch": "master",
        "description": null,
        "homepage": null,
        "owner": "NorfairKing",
        "repo": "safe-coloured-text",
        "rev": "7f157485e55528648a95edf3508a122b2e55779e",
        "sha256": "0ayxfay78s4rlir3ls76bb5kw2fxwnj1kak9lwd86zvdqjwl02l5",
        "type": "tarball",
        "url": "https://github.com/NorfairKing/safe-coloured-text/archive/7f157485e55528648a95edf3508a122b2e55779e.tar.gz",
        "url_template": "https://github.com/<owner>/<repo>/archive/<rev>.tar.gz"
    },
    "seocheck": {
        "branch": "master",
        "description": null,
        "homepage": null,
        "owner": "NorfairKing",
        "repo": "seocheck",
        "rev": "499d88b40243b06cad216a492deca782738fa0b3",
        "sha256": "0svlqvak3pcgbr50f28csf6mn8djbvvfi2av7xwfbnz1adagww7r",
        "type": "tarball",
        "url": "https://github.com/NorfairKing/seocheck/archive/499d88b40243b06cad216a492deca782738fa0b3.tar.gz",
        "url_template": "https://github.com/<owner>/<repo>/archive/<rev>.tar.gz"
    },
    "yamlparse-applicative": {
        "branch": "master",
        "description": "An optparse-applicative -style explainable yaml parser",
        "homepage": "https://cs-syd.eu/posts/2020-06-28-yamlparse-applicative",
        "owner": "NorfairKing",
        "repo": "yamlparse-applicative",
        "rev": "224a03aa8880d426b7641db16a05e0c7b311684f",
        "sha256": "1a0jb1lrrawwc7x87i2hj99zbpyl70y90zjpkr2s0s04nnsxjk4f",
        "type": "tarball",
        "url": "https://github.com/NorfairKing/yamlparse-applicative/archive/224a03aa8880d426b7641db16a05e0c7b311684f.tar.gz",
        "url_template": "https://github.com/<owner>/<repo>/archive/<rev>.tar.gz"
    }
}
