digraph pipeline {
  node [shape="rectangle", size="20,50"];

  start [style="invis"];
  fetcher1 [label="Fetcher"];
  fetcher2 [label="Fetcher"];
  fetcher3 [label="Fetcher"];
  scraper [label="Scraper"];
  queue [label="Queue"];
  store [label="Store"];

  node [shape="ellipse", label=""];
  prefetchbuffer [label="URL"];
  postfetchbuffer [label="Content"];
  urlbuffer [label="URL"];
  addressbuffer [label="Address"];

  start -> queue [label="Seed"];
  queue -> prefetchbuffer;
  prefetchbuffer -> fetcher1;
  prefetchbuffer -> fetcher2;
  prefetchbuffer -> fetcher3;
  fetcher1 -> postfetchbuffer;
  fetcher2 -> postfetchbuffer;
  fetcher3 -> postfetchbuffer;
  postfetchbuffer -> scraper [label="Content"];
  scraper -> urlbuffer;
  scraper -> addressbuffer;
  urlbuffer -> queue [label="Urls"];
  addressbuffer -> store [label="Addresses"];

  rankdir=LR;
}
